{
	"pattrstorage" : 	{
		"name" : "RD-perf-a",
		"slots" : 		{
			"1" : 			{
				"id" : 1,
				"data" : 				{
					"bbdmi.rms~::Chans" : [ 2 ],
					"bbdmi.rms~::Winsize" : [ 0.5 ],
					"bbdmi.rms~::Interval" : [ 10 ],
					"bbdmi.multislider::Chans" : [ 2 ],
					"bbdmi.multislider::Mode" : [ 0 ],
					"bbdmi.multislider::Index" : [ 0 ],
					"bbdmi.multislider::Multislider" : [ 0.0, 0.0 ],
					"bbdmi.calibrate::Chans" : [ 2 ],
					"bbdmi.calibrate::Time" : [ 10 ],
					"bbdmi.calibrate::bbdmi.calibrate[1]::Curve" : [ 0.25 ],
					"bbdmi.calibrate::bbdmi.calibrate[1]::Mode" : [ 0 ],
					"bbdmi.calibrate::bbdmi.calibrate[1]::Min" : [ 0.01 ],
					"bbdmi.calibrate::bbdmi.calibrate[1]::Max" : [ 0.1 ],
					"bbdmi.calibrate::bbdmi.calibrate[2]::Curve" : [ 0.25 ],
					"bbdmi.calibrate::bbdmi.calibrate[2]::Mode" : [ 0 ],
					"bbdmi.calibrate::bbdmi.calibrate[2]::Min" : [ 0.01 ],
					"bbdmi.calibrate::bbdmi.calibrate[2]::Max" : [ 0.1 ],
					"bbdmi.calibrate::bbdmi.calibrate[3]::Curve" : [ 1.0 ],
					"bbdmi.calibrate::bbdmi.calibrate[3]::Mode" : [ 0 ],
					"bbdmi.calibrate::bbdmi.calibrate[3]::Min" : [ 0.0 ],
					"bbdmi.calibrate::bbdmi.calibrate[3]::Max" : [ 1.0 ],
					"bbdmi.calibrate::bbdmi.calibrate[4]::Curve" : [ 1.0 ],
					"bbdmi.calibrate::bbdmi.calibrate[4]::Mode" : [ 0 ],
					"bbdmi.calibrate::bbdmi.calibrate[4]::Min" : [ 0.0 ],
					"bbdmi.calibrate::bbdmi.calibrate[4]::Max" : [ 1.0 ],
					"bbdmi.calibrate::bbdmi.calibrate[5]::Curve" : [ 1.0 ],
					"bbdmi.calibrate::bbdmi.calibrate[5]::Mode" : [ 0 ],
					"bbdmi.calibrate::bbdmi.calibrate[5]::Min" : [ 0.0 ],
					"bbdmi.calibrate::bbdmi.calibrate[5]::Max" : [ 1.0 ],
					"bbdmi.calibrate::bbdmi.calibrate[6]::Curve" : [ 1.0 ],
					"bbdmi.calibrate::bbdmi.calibrate[6]::Mode" : [ 0 ],
					"bbdmi.calibrate::bbdmi.calibrate[6]::Min" : [ 0.0 ],
					"bbdmi.calibrate::bbdmi.calibrate[6]::Max" : [ 1.0 ],
					"bbdmi.calibrate::bbdmi.calibrate[7]::Curve" : [ 1.0 ],
					"bbdmi.calibrate::bbdmi.calibrate[7]::Mode" : [ 0 ],
					"bbdmi.calibrate::bbdmi.calibrate[7]::Min" : [ 0.0 ],
					"bbdmi.calibrate::bbdmi.calibrate[7]::Max" : [ 1.0 ],
					"bbdmi.calibrate::bbdmi.calibrate[8]::Curve" : [ 1.0 ],
					"bbdmi.calibrate::bbdmi.calibrate[8]::Mode" : [ 0 ],
					"bbdmi.calibrate::bbdmi.calibrate[8]::Min" : [ 0.0 ],
					"bbdmi.calibrate::bbdmi.calibrate[8]::Max" : [ 1.0 ],
					"bbdmi.calibrate::bbdmi.calibrate[9]::Curve" : [ 1.0 ],
					"bbdmi.calibrate::bbdmi.calibrate[9]::Mode" : [ 0 ],
					"bbdmi.calibrate::bbdmi.calibrate[9]::Min" : [ 0.0 ],
					"bbdmi.calibrate::bbdmi.calibrate[9]::Max" : [ 1.0 ],
					"bbdmi.calibrate::bbdmi.calibrate[10]::Curve" : [ 1.0 ],
					"bbdmi.calibrate::bbdmi.calibrate[10]::Mode" : [ 0 ],
					"bbdmi.calibrate::bbdmi.calibrate[10]::Min" : [ 0.0 ],
					"bbdmi.calibrate::bbdmi.calibrate[10]::Max" : [ 1.0 ],
					"bbdmi.calibrate::bbdmi.calibrate[11]::Curve" : [ 1.0 ],
					"bbdmi.calibrate::bbdmi.calibrate[11]::Mode" : [ 0 ],
					"bbdmi.calibrate::bbdmi.calibrate[11]::Min" : [ 0.0 ],
					"bbdmi.calibrate::bbdmi.calibrate[11]::Max" : [ 1.0 ],
					"bbdmi.calibrate::bbdmi.calibrate[12]::Curve" : [ 1.0 ],
					"bbdmi.calibrate::bbdmi.calibrate[12]::Mode" : [ 0 ],
					"bbdmi.calibrate::bbdmi.calibrate[12]::Min" : [ 0.0 ],
					"bbdmi.calibrate::bbdmi.calibrate[12]::Max" : [ 1.0 ],
					"bbdmi.calibrate::bbdmi.calibrate[13]::Curve" : [ 1.0 ],
					"bbdmi.calibrate::bbdmi.calibrate[13]::Mode" : [ 0 ],
					"bbdmi.calibrate::bbdmi.calibrate[13]::Min" : [ 0.0 ],
					"bbdmi.calibrate::bbdmi.calibrate[13]::Max" : [ 1.0 ],
					"bbdmi.calibrate::bbdmi.calibrate[14]::Curve" : [ 1.0 ],
					"bbdmi.calibrate::bbdmi.calibrate[14]::Mode" : [ 0 ],
					"bbdmi.calibrate::bbdmi.calibrate[14]::Min" : [ 0.0 ],
					"bbdmi.calibrate::bbdmi.calibrate[14]::Max" : [ 1.0 ],
					"bbdmi.calibrate::bbdmi.calibrate[15]::Curve" : [ 1.0 ],
					"bbdmi.calibrate::bbdmi.calibrate[15]::Mode" : [ 0 ],
					"bbdmi.calibrate::bbdmi.calibrate[15]::Min" : [ 0.0 ],
					"bbdmi.calibrate::bbdmi.calibrate[15]::Max" : [ 1.0 ],
					"bbdmi.calibrate::bbdmi.calibrate[16]::Curve" : [ 1.0 ],
					"bbdmi.calibrate::bbdmi.calibrate[16]::Mode" : [ 0 ],
					"bbdmi.calibrate::bbdmi.calibrate[16]::Min" : [ 0.0 ],
					"bbdmi.calibrate::bbdmi.calibrate[16]::Max" : [ 1.0 ],
					"bbdmi.list2~::Chans" : [ 2 ],
					"bbdmi.crosspatch::In" : [ 4 ],
					"bbdmi.crosspatch::Out" : [ 2 ],
					"bbdmi.crosspatch::Crosspatch" : [ 						{
							"data" : 							{
								"numins" : 4,
								"numouts" : 2,
								"connections" : [ 									{
										"in" : 0,
										"out" : 0,
										"gain" : 1.0
									}
, 									{
										"in" : 1,
										"out" : 1,
										"gain" : 1.0
									}
 ]
							}

						}
 ],
					"bbdmi.2xbend::Chans" : [ 2 ],
					"bbdmi.2xbend::bbdmi.2xbend[1]::Port" : [ 0 ],
					"bbdmi.2xbend::bbdmi.2xbend[1]::Channel" : [ 9 ],
					"bbdmi.2xbend::bbdmi.2xbend[2]::Port" : [ 0 ],
					"bbdmi.2xbend::bbdmi.2xbend[2]::Channel" : [ 10 ],
					"bbdmi.smooth[1]::In" : [ 2 ],
					"bbdmi.smooth[1]::Smooth" : [ 0.5 ]
				}

			}

		}

	}

}
