{
	"pattrstorage" : 	{
		"name" : "JEP_preset",
		"slots" : 		{
			"1" : 			{
				"id" : 1,
				"data" : 				{
					"Mode" : [ 1 ],
					"bbdmi.eavi::output[1]" : [ "<EMG>" ],
					"bbdmi.eavi::in" : [ 2 ],
					"bbdmi.list2~::input" : [ "<I>" ],
					"bbdmi.list2~::output[1]" : [ "<O~>" ],
					"bbdmi.list2~::in" : [ 4 ],
					"bbdmi.rms~::input-list" : [ "<I>" ],
					"bbdmi.rms~::output[1]" : [ "<O>" ],
					"bbdmi.rms~::In[1]" : [ 4 ],
					"bbdmi.rms~::Winsize" : [ 400 ],
					"bbdmi.rms~::Interval" : [ 30 ],
					"bbdmi.calibrate::input-list" : [ "<I>" ],
					"bbdmi.calibrate::output" : [ "<O>" ],
					"bbdmi.calibrate::In[1]" : [ 4 ],
					"bbdmi.calibrate::bbdmi.calibrate[1]::Max" : [ 0.269813659781581 ],
					"bbdmi.calibrate::bbdmi.calibrate[1]::Min" : [ 0.007044173456069 ],
					"bbdmi.calibrate::bbdmi.calibrate[1]::Mode" : [ 0 ],
					"bbdmi.calibrate::bbdmi.calibrate[2]::Max" : [ 0.445950959806417 ],
					"bbdmi.calibrate::bbdmi.calibrate[2]::Min" : [ 0.029361492642291 ],
					"bbdmi.calibrate::bbdmi.calibrate[2]::Mode" : [ 0 ],
					"bbdmi.calibrate::bbdmi.calibrate[3]::Max" : [ 0.27649281999345 ],
					"bbdmi.calibrate::bbdmi.calibrate[3]::Min" : [ 0.048892463426011 ],
					"bbdmi.calibrate::bbdmi.calibrate[3]::Mode" : [ 0 ],
					"bbdmi.calibrate::bbdmi.calibrate[4]::Max" : [ 0.356896943521841 ],
					"bbdmi.calibrate::bbdmi.calibrate[4]::Min" : [ 0.019707833111569 ],
					"bbdmi.calibrate::bbdmi.calibrate[4]::Mode" : [ 0 ],
					"bbdmi.calibrate::bbdmi.calibrate[5]::Max" : [ 1.0 ],
					"bbdmi.calibrate::bbdmi.calibrate[5]::Min" : [ 0.0 ],
					"bbdmi.calibrate::bbdmi.calibrate[5]::Mode" : [ 0 ],
					"bbdmi.calibrate::bbdmi.calibrate[6]::Max" : [ 1.0 ],
					"bbdmi.calibrate::bbdmi.calibrate[6]::Min" : [ 0.0 ],
					"bbdmi.calibrate::bbdmi.calibrate[6]::Mode" : [ 0 ],
					"bbdmi.calibrate::bbdmi.calibrate[7]::Max" : [ 1.0 ],
					"bbdmi.calibrate::bbdmi.calibrate[7]::Min" : [ 0.0 ],
					"bbdmi.calibrate::bbdmi.calibrate[7]::Mode" : [ 0 ],
					"bbdmi.calibrate::bbdmi.calibrate[8]::Max" : [ 1.0 ],
					"bbdmi.calibrate::bbdmi.calibrate[8]::Min" : [ 0.0 ],
					"bbdmi.calibrate::bbdmi.calibrate[8]::Mode" : [ 0 ],
					"bbdmi.calibrate::bbdmi.calibrate[9]::Max" : [ 1.0 ],
					"bbdmi.calibrate::bbdmi.calibrate[9]::Min" : [ 0.0 ],
					"bbdmi.calibrate::bbdmi.calibrate[9]::Mode" : [ 0 ],
					"bbdmi.calibrate::bbdmi.calibrate[10]::Max" : [ 1.0 ],
					"bbdmi.calibrate::bbdmi.calibrate[10]::Min" : [ 0.0 ],
					"bbdmi.calibrate::bbdmi.calibrate[10]::Mode" : [ 0 ],
					"bbdmi.calibrate::bbdmi.calibrate[11]::Max" : [ 1.0 ],
					"bbdmi.calibrate::bbdmi.calibrate[11]::Min" : [ 0.0 ],
					"bbdmi.calibrate::bbdmi.calibrate[11]::Mode" : [ 0 ],
					"bbdmi.calibrate::bbdmi.calibrate[12]::Max" : [ 1.0 ],
					"bbdmi.calibrate::bbdmi.calibrate[12]::Min" : [ 0.0 ],
					"bbdmi.calibrate::bbdmi.calibrate[12]::Mode" : [ 0 ],
					"bbdmi.calibrate::bbdmi.calibrate[13]::Max" : [ 1.0 ],
					"bbdmi.calibrate::bbdmi.calibrate[13]::Min" : [ 0.0 ],
					"bbdmi.calibrate::bbdmi.calibrate[13]::Mode" : [ 0 ],
					"bbdmi.calibrate::bbdmi.calibrate[14]::Max" : [ 1.0 ],
					"bbdmi.calibrate::bbdmi.calibrate[14]::Min" : [ 0.0 ],
					"bbdmi.calibrate::bbdmi.calibrate[14]::Mode" : [ 0 ],
					"bbdmi.calibrate::bbdmi.calibrate[15]::Max" : [ 1.0 ],
					"bbdmi.calibrate::bbdmi.calibrate[15]::Min" : [ 0.0 ],
					"bbdmi.calibrate::bbdmi.calibrate[15]::Mode" : [ 0 ],
					"bbdmi.calibrate::bbdmi.calibrate[16]::Max" : [ 1.0 ],
					"bbdmi.calibrate::bbdmi.calibrate[16]::Min" : [ 0.0 ],
					"bbdmi.calibrate::bbdmi.calibrate[16]::Mode" : [ 0 ],
					"bbdmi.regress::predictions" : [ "<REGRESSION>" ],
					"bbdmi.regress::input" : [ "<INPUT>" ],
					"bbdmi.regress::output" : [ "<OUTPUT>" ],
					"bbdmi.regress::input-number[1]" : [ 1 ],
					"bbdmi.regress::output-number" : [ 1 ],
					"bbdmi.multislider[1]::input-list" : [ "<I>" ],
					"bbdmi.multislider[1]::output" : [ "<O>" ],
					"bbdmi.multislider[1]::In[1]" : [ 13 ],
					"bbdmi.multislider[1]::BarLine" : [ 0 ],
					"bbdmi.multislider[1]::UniBi[1]" : [ 0 ],
					"bbdmi.scale::input-list" : [ "<I>" ],
					"bbdmi.scale::output" : [ "<O>" ],
					"bbdmi.scale::In[1]" : [ 5 ],
					"bbdmi.scale::bbdmi.scale[1]::MinOut" : [ 0.0 ],
					"bbdmi.scale::bbdmi.scale[1]::MaxOut" : [ 2.0 ],
					"bbdmi.scale::bbdmi.scale[1]::Curve" : [ 1.0 ],
					"bbdmi.scale::bbdmi.scale[2]::MinOut" : [ -0.5 ],
					"bbdmi.scale::bbdmi.scale[2]::MaxOut" : [ 15.0 ],
					"bbdmi.scale::bbdmi.scale[2]::Curve" : [ 1.0 ],
					"bbdmi.scale::bbdmi.scale[3]::MinOut" : [ 100.0 ],
					"bbdmi.scale::bbdmi.scale[3]::MaxOut" : [ 8000.0 ],
					"bbdmi.scale::bbdmi.scale[3]::Curve" : [ 1.0 ],
					"bbdmi.scale::bbdmi.scale[4]::MinOut" : [ 0.0 ],
					"bbdmi.scale::bbdmi.scale[4]::MaxOut" : [ 1.0 ],
					"bbdmi.scale::bbdmi.scale[4]::Curve" : [ 4.0 ],
					"bbdmi.scale::bbdmi.scale[5]::MinOut" : [ -3000.0 ],
					"bbdmi.scale::bbdmi.scale[5]::MaxOut" : [ 3000.0 ],
					"bbdmi.scale::bbdmi.scale[5]::Curve" : [ 1.0 ],
					"bbdmi.scale::bbdmi.scale[6]::MinOut" : [ 0.0 ],
					"bbdmi.scale::bbdmi.scale[6]::MaxOut" : [ 1.0 ],
					"bbdmi.scale::bbdmi.scale[6]::Curve" : [ 1.0 ],
					"bbdmi.scale::bbdmi.scale[7]::MinOut" : [ 0.0 ],
					"bbdmi.scale::bbdmi.scale[7]::MaxOut" : [ 1.0 ],
					"bbdmi.scale::bbdmi.scale[7]::Curve" : [ 1.0 ],
					"bbdmi.scale::bbdmi.scale[8]::MinOut" : [ 0.0 ],
					"bbdmi.scale::bbdmi.scale[8]::MaxOut" : [ 1.0 ],
					"bbdmi.scale::bbdmi.scale[8]::Curve" : [ 1.0 ],
					"bbdmi.scale::bbdmi.scale[9]::MinOut" : [ 0.0 ],
					"bbdmi.scale::bbdmi.scale[9]::MaxOut" : [ 1.0 ],
					"bbdmi.scale::bbdmi.scale[9]::Curve" : [ 1.0 ],
					"bbdmi.scale::bbdmi.scale[10]::MinOut" : [ 0.0 ],
					"bbdmi.scale::bbdmi.scale[10]::MaxOut" : [ 1.0 ],
					"bbdmi.scale::bbdmi.scale[10]::Curve" : [ 1.0 ],
					"bbdmi.scale::bbdmi.scale[11]::MinOut" : [ 0.0 ],
					"bbdmi.scale::bbdmi.scale[11]::MaxOut" : [ 1.0 ],
					"bbdmi.scale::bbdmi.scale[11]::Curve" : [ 1.0 ],
					"bbdmi.scale::bbdmi.scale[12]::MinOut" : [ 0.0 ],
					"bbdmi.scale::bbdmi.scale[12]::MaxOut" : [ 1.0 ],
					"bbdmi.scale::bbdmi.scale[12]::Curve" : [ 1.0 ],
					"bbdmi.scale::bbdmi.scale[13]::MinOut" : [ 0.0 ],
					"bbdmi.scale::bbdmi.scale[13]::MaxOut" : [ 1.0 ],
					"bbdmi.scale::bbdmi.scale[13]::Curve" : [ 1.0 ],
					"bbdmi.scale::bbdmi.scale[14]::MinOut" : [ 0.0 ],
					"bbdmi.scale::bbdmi.scale[14]::MaxOut" : [ 1.0 ],
					"bbdmi.scale::bbdmi.scale[14]::Curve" : [ 1.0 ],
					"bbdmi.scale::bbdmi.scale[15]::MinOut" : [ 0.0 ],
					"bbdmi.scale::bbdmi.scale[15]::MaxOut" : [ 1.0 ],
					"bbdmi.scale::bbdmi.scale[15]::Curve" : [ 1.0 ],
					"bbdmi.scale::bbdmi.scale[16]::MinOut" : [ 0.0 ],
					"bbdmi.scale::bbdmi.scale[16]::MaxOut" : [ 1.0 ],
					"bbdmi.scale::bbdmi.scale[16]::Curve" : [ 1.0 ],
					"bbdmi.2max::input-list" : [ "<I>" ],
					"bbdmi.2max::In[1]" : [ 5 ],
					"bbdmi.2max::bbdmi.2max[1]::SendTo" : [ "filterQ" ],
					"bbdmi.2max::bbdmi.2max[2]::SendTo" : [ "speed" ],
					"bbdmi.2max::bbdmi.2max[3]::SendTo" : [ "filterF" ],
					"bbdmi.2max::bbdmi.2max[4]::SendTo" : [ "decorrelation" ],
					"bbdmi.2max::bbdmi.2max[5]::SendTo" : [ "pitch" ],
					"bbdmi.2max::bbdmi.2max[6]::SendTo" : [ "send", "to", "none" ],
					"bbdmi.2max::bbdmi.2max[7]::SendTo" : [ "send", "to", "none" ],
					"bbdmi.2max::bbdmi.2max[8]::SendTo" : [ "send", "to", "none" ],
					"bbdmi.2max::bbdmi.2max[9]::SendTo" : [ "send", "to", "none" ],
					"bbdmi.2max::bbdmi.2max[10]::SendTo" : [ "send", "to", "none" ],
					"bbdmi.2max::bbdmi.2max[11]::SendTo" : [ "send", "to", "none" ],
					"bbdmi.2max::bbdmi.2max[12]::SendTo" : [ "send", "to", "none" ],
					"bbdmi.2max::bbdmi.2max[13]::SendTo" : [ "send", "to", "none" ],
					"bbdmi.2max::bbdmi.2max[14]::SendTo" : [ "send", "to", "none" ],
					"bbdmi.2max::bbdmi.2max[15]::SendTo" : [ "send", "to", "none" ],
					"bbdmi.2max::bbdmi.2max[16]::SendTo" : [ "send", "to", "none" ],
					"bbdmi.speedlim::input-list" : [ "<I>" ],
					"bbdmi.speedlim::output" : [ "<O>" ],
					"bbdmi.speedlim::Speedlim" : [ 40 ],
					"bbdmi.speedlim::In[1]" : [ 5 ],
					"bbdmi.crosspatch::input-list" : [ "<I>" ],
					"bbdmi.crosspatch::crosspath" : [ 						{
							"data" : 							{
								"numins" : 5,
								"numouts" : 5,
								"connections" : [ 									{
										"in" : 1,
										"out" : 1,
										"gain" : 1.0
									}
, 									{
										"in" : 2,
										"out" : 2,
										"gain" : 1.0
									}
, 									{
										"in" : 3,
										"out" : 3,
										"gain" : 1.0
									}
, 									{
										"in" : 0,
										"out" : 4,
										"gain" : 1.0
									}
 ]
							}

						}
 ],
					"bbdmi.crosspatch::output[1]" : [ "<O>" ],
					"bbdmi.crosspatch::In[1]" : [ 5 ],
					"bbdmi.myo::output[1]" : [ "<EMG>" ],
					"bbdmi.myo::output[2]" : [ "<QUAT>" ],
					"bbdmi.myo::Umenu" : [ 0 ],
					"bbdmi.rand~[2]::output[1]" : [ "<EMG>" ],
					"bbdmi.rand~[2]::output[2]" : [ "<QUAT>" ],
					"bbdmi.rand~[2]::Umenu" : [ 0 ],
					"bbdmi.list2~[1]::input" : [ "<I>" ],
					"bbdmi.list2~[1]::output[1]" : [ "<O~>" ],
					"bbdmi.list2~[1]::in" : [ 2 ],
					"bbdmi.list2~[2]::output[1]" : [ "<O~>" ],
					"bbdmi.list2~[2]::in" : [ 2 ],
					"bbdmi.list2~[2]::input" : [ "<I>" ]
				}

			}
,
			"8" : 			{
				"id" : 8,
				"data" : 				{
					"Mode" : [ 2 ],
					"bbdmi.eavi::output[1]" : [ "<EMG>" ],
					"bbdmi.eavi::in" : [ 2 ],
					"bbdmi.list2~::input" : [ "<I>" ],
					"bbdmi.list2~::output[1]" : [ "<O~>" ],
					"bbdmi.list2~::in" : [ 4 ],
					"bbdmi.rms~::input-list" : [ "<I>" ],
					"bbdmi.rms~::output[1]" : [ "<O>" ],
					"bbdmi.rms~::In[1]" : [ 4 ],
					"bbdmi.rms~::Winsize" : [ 400 ],
					"bbdmi.rms~::Interval" : [ 30 ],
					"bbdmi.calibrate::input-list" : [ "<I>" ],
					"bbdmi.calibrate::output" : [ "<O>" ],
					"bbdmi.calibrate::In[1]" : [ 4 ],
					"bbdmi.calibrate::bbdmi.calibrate[1]::Max" : [ 0.47280232619211 ],
					"bbdmi.calibrate::bbdmi.calibrate[1]::Min" : [ 0.040342016109468 ],
					"bbdmi.calibrate::bbdmi.calibrate[1]::Mode" : [ 0 ],
					"bbdmi.calibrate::bbdmi.calibrate[2]::Max" : [ 0.369773669045076 ],
					"bbdmi.calibrate::bbdmi.calibrate[2]::Min" : [ 0.01143614213199 ],
					"bbdmi.calibrate::bbdmi.calibrate[2]::Mode" : [ 0 ],
					"bbdmi.calibrate::bbdmi.calibrate[3]::Max" : [ 0.303241068235466 ],
					"bbdmi.calibrate::bbdmi.calibrate[3]::Min" : [ 0.062776651365993 ],
					"bbdmi.calibrate::bbdmi.calibrate[3]::Mode" : [ 0 ],
					"bbdmi.calibrate::bbdmi.calibrate[4]::Max" : [ 0.604916836941794 ],
					"bbdmi.calibrate::bbdmi.calibrate[4]::Min" : [ 0.068971920255434 ],
					"bbdmi.calibrate::bbdmi.calibrate[4]::Mode" : [ 0 ],
					"bbdmi.calibrate::bbdmi.calibrate[5]::Max" : [ 1.0 ],
					"bbdmi.calibrate::bbdmi.calibrate[5]::Min" : [ 0.0 ],
					"bbdmi.calibrate::bbdmi.calibrate[5]::Mode" : [ 0 ],
					"bbdmi.calibrate::bbdmi.calibrate[6]::Max" : [ 1.0 ],
					"bbdmi.calibrate::bbdmi.calibrate[6]::Min" : [ 0.0 ],
					"bbdmi.calibrate::bbdmi.calibrate[6]::Mode" : [ 0 ],
					"bbdmi.calibrate::bbdmi.calibrate[7]::Max" : [ 1.0 ],
					"bbdmi.calibrate::bbdmi.calibrate[7]::Min" : [ 0.0 ],
					"bbdmi.calibrate::bbdmi.calibrate[7]::Mode" : [ 0 ],
					"bbdmi.calibrate::bbdmi.calibrate[8]::Max" : [ 1.0 ],
					"bbdmi.calibrate::bbdmi.calibrate[8]::Min" : [ 0.0 ],
					"bbdmi.calibrate::bbdmi.calibrate[8]::Mode" : [ 0 ],
					"bbdmi.calibrate::bbdmi.calibrate[9]::Max" : [ 1.0 ],
					"bbdmi.calibrate::bbdmi.calibrate[9]::Min" : [ 0.0 ],
					"bbdmi.calibrate::bbdmi.calibrate[9]::Mode" : [ 0 ],
					"bbdmi.calibrate::bbdmi.calibrate[10]::Max" : [ 1.0 ],
					"bbdmi.calibrate::bbdmi.calibrate[10]::Min" : [ 0.0 ],
					"bbdmi.calibrate::bbdmi.calibrate[10]::Mode" : [ 0 ],
					"bbdmi.calibrate::bbdmi.calibrate[11]::Max" : [ 1.0 ],
					"bbdmi.calibrate::bbdmi.calibrate[11]::Min" : [ 0.0 ],
					"bbdmi.calibrate::bbdmi.calibrate[11]::Mode" : [ 0 ],
					"bbdmi.calibrate::bbdmi.calibrate[12]::Max" : [ 1.0 ],
					"bbdmi.calibrate::bbdmi.calibrate[12]::Min" : [ 0.0 ],
					"bbdmi.calibrate::bbdmi.calibrate[12]::Mode" : [ 0 ],
					"bbdmi.calibrate::bbdmi.calibrate[13]::Max" : [ 1.0 ],
					"bbdmi.calibrate::bbdmi.calibrate[13]::Min" : [ 0.0 ],
					"bbdmi.calibrate::bbdmi.calibrate[13]::Mode" : [ 0 ],
					"bbdmi.calibrate::bbdmi.calibrate[14]::Max" : [ 1.0 ],
					"bbdmi.calibrate::bbdmi.calibrate[14]::Min" : [ 0.0 ],
					"bbdmi.calibrate::bbdmi.calibrate[14]::Mode" : [ 0 ],
					"bbdmi.calibrate::bbdmi.calibrate[15]::Max" : [ 1.0 ],
					"bbdmi.calibrate::bbdmi.calibrate[15]::Min" : [ 0.0 ],
					"bbdmi.calibrate::bbdmi.calibrate[15]::Mode" : [ 0 ],
					"bbdmi.calibrate::bbdmi.calibrate[16]::Max" : [ 1.0 ],
					"bbdmi.calibrate::bbdmi.calibrate[16]::Min" : [ 0.0 ],
					"bbdmi.calibrate::bbdmi.calibrate[16]::Mode" : [ 0 ],
					"bbdmi.regress::predictions" : [ "<REGRESSION>" ],
					"bbdmi.regress::input" : [ "<INPUT>" ],
					"bbdmi.regress::output" : [ "<OUTPUT>" ],
					"bbdmi.regress::input-number[1]" : [ 5 ],
					"bbdmi.regress::output-number" : [ 13 ],
					"bbdmi.multislider[1]::input-list" : [ "<I>" ],
					"bbdmi.multislider[1]::output" : [ "<O>" ],
					"bbdmi.multislider[1]::In[1]" : [ 13 ],
					"bbdmi.multislider[1]::BarLine" : [ 0 ],
					"bbdmi.multislider[1]::UniBi[1]" : [ 0 ],
					"bbdmi.scale::input-list" : [ "<I>" ],
					"bbdmi.scale::output" : [ "<O>" ],
					"bbdmi.scale::In[1]" : [ 13 ],
					"bbdmi.scale::bbdmi.scale[1]::MinOut" : [ -4000.0 ],
					"bbdmi.scale::bbdmi.scale[1]::MaxOut" : [ 4000.0 ],
					"bbdmi.scale::bbdmi.scale[1]::Curve" : [ 1.0 ],
					"bbdmi.scale::bbdmi.scale[2]::MinOut" : [ 0.0 ],
					"bbdmi.scale::bbdmi.scale[2]::MaxOut" : [ 15.0 ],
					"bbdmi.scale::bbdmi.scale[2]::Curve" : [ 1.0 ],
					"bbdmi.scale::bbdmi.scale[3]::MinOut" : [ 0.0 ],
					"bbdmi.scale::bbdmi.scale[3]::MaxOut" : [ 1.0 ],
					"bbdmi.scale::bbdmi.scale[3]::Curve" : [ 1.0 ],
					"bbdmi.scale::bbdmi.scale[4]::MinOut" : [ 100.0 ],
					"bbdmi.scale::bbdmi.scale[4]::MaxOut" : [ 10000.0 ],
					"bbdmi.scale::bbdmi.scale[4]::Curve" : [ 4.0 ],
					"bbdmi.scale::bbdmi.scale[5]::MinOut" : [ 0.0 ],
					"bbdmi.scale::bbdmi.scale[5]::MaxOut" : [ 2.0 ],
					"bbdmi.scale::bbdmi.scale[5]::Curve" : [ 1.0 ],
					"bbdmi.scale::bbdmi.scale[6]::MinOut" : [ -30.0 ],
					"bbdmi.scale::bbdmi.scale[6]::MaxOut" : [ 30.0 ],
					"bbdmi.scale::bbdmi.scale[6]::Curve" : [ 1.0 ],
					"bbdmi.scale::bbdmi.scale[7]::MinOut" : [ -3000.0 ],
					"bbdmi.scale::bbdmi.scale[7]::MaxOut" : [ 3000.0 ],
					"bbdmi.scale::bbdmi.scale[7]::Curve" : [ 1.0 ],
					"bbdmi.scale::bbdmi.scale[8]::MinOut" : [ 0.0 ],
					"bbdmi.scale::bbdmi.scale[8]::MaxOut" : [ 35000.0 ],
					"bbdmi.scale::bbdmi.scale[8]::Curve" : [ 1.0 ],
					"bbdmi.scale::bbdmi.scale[9]::MinOut" : [ 36000.0 ],
					"bbdmi.scale::bbdmi.scale[9]::MaxOut" : [ 75000.0 ],
					"bbdmi.scale::bbdmi.scale[9]::Curve" : [ 1.0 ],
					"bbdmi.scale::bbdmi.scale[10]::MinOut" : [ 0.0 ],
					"bbdmi.scale::bbdmi.scale[10]::MaxOut" : [ 1.0 ],
					"bbdmi.scale::bbdmi.scale[10]::Curve" : [ 1.0 ],
					"bbdmi.scale::bbdmi.scale[11]::MinOut" : [ 0.0 ],
					"bbdmi.scale::bbdmi.scale[11]::MaxOut" : [ 200.0 ],
					"bbdmi.scale::bbdmi.scale[11]::Curve" : [ 1.0 ],
					"bbdmi.scale::bbdmi.scale[12]::MinOut" : [ 0.0 ],
					"bbdmi.scale::bbdmi.scale[12]::MaxOut" : [ 1.0 ],
					"bbdmi.scale::bbdmi.scale[12]::Curve" : [ 1.0 ],
					"bbdmi.scale::bbdmi.scale[13]::MinOut" : [ 0.0 ],
					"bbdmi.scale::bbdmi.scale[13]::MaxOut" : [ 200.0 ],
					"bbdmi.scale::bbdmi.scale[13]::Curve" : [ 1.0 ],
					"bbdmi.scale::bbdmi.scale[14]::MinOut" : [ 0.0 ],
					"bbdmi.scale::bbdmi.scale[14]::MaxOut" : [ 1.0 ],
					"bbdmi.scale::bbdmi.scale[14]::Curve" : [ 1.0 ],
					"bbdmi.scale::bbdmi.scale[15]::MinOut" : [ 0.0 ],
					"bbdmi.scale::bbdmi.scale[15]::MaxOut" : [ 1.0 ],
					"bbdmi.scale::bbdmi.scale[15]::Curve" : [ 1.0 ],
					"bbdmi.scale::bbdmi.scale[16]::MinOut" : [ 0.0 ],
					"bbdmi.scale::bbdmi.scale[16]::MaxOut" : [ 1.0 ],
					"bbdmi.scale::bbdmi.scale[16]::Curve" : [ 1.0 ],
					"bbdmi.2max::input-list" : [ "<I>" ],
					"bbdmi.2max::In[1]" : [ 13 ],
					"bbdmi.2max::bbdmi.2max[1]::SendTo" : [ "pitch" ],
					"bbdmi.2max::bbdmi.2max[2]::SendTo" : [ "speed" ],
					"bbdmi.2max::bbdmi.2max[3]::SendTo" : [ "decorrelation" ],
					"bbdmi.2max::bbdmi.2max[4]::SendTo" : [ "filterF" ],
					"bbdmi.2max::bbdmi.2max[5]::SendTo" : [ "filterQ" ],
					"bbdmi.2max::bbdmi.2max[6]::SendTo" : [ "PlaySpeed1" ],
					"bbdmi.2max::bbdmi.2max[7]::SendTo" : [ "PitchSampler" ],
					"bbdmi.2max::bbdmi.2max[8]::SendTo" : [ "startTime1" ],
					"bbdmi.2max::bbdmi.2max[9]::SendTo" : [ "endTime1" ],
					"bbdmi.2max::bbdmi.2max[10]::SendTo" : [ "leftVibratoAmount1" ],
					"bbdmi.2max::bbdmi.2max[11]::SendTo" : [ "leftVibratoFreq1" ],
					"bbdmi.2max::bbdmi.2max[12]::SendTo" : [ "leftVibratoAmount2" ],
					"bbdmi.2max::bbdmi.2max[13]::SendTo" : [ "leftVibratoFreq2" ],
					"bbdmi.2max::bbdmi.2max[14]::SendTo" : [ "send", "to", "none" ],
					"bbdmi.2max::bbdmi.2max[15]::SendTo" : [ "send", "to", "none" ],
					"bbdmi.2max::bbdmi.2max[16]::SendTo" : [ "send", "to", "none" ],
					"bbdmi.speedlim::input-list" : [ "<I>" ],
					"bbdmi.speedlim::output" : [ "<O>" ],
					"bbdmi.speedlim::Speedlim" : [ 40 ],
					"bbdmi.speedlim::In[1]" : [ 5 ],
					"bbdmi.crosspatch::input-list" : [ "<I>" ],
					"bbdmi.crosspatch::crosspath" : [ 						{
							"data" : 							{
								"numins" : 5,
								"numouts" : 5,
								"connections" : [ 									{
										"in" : 0,
										"out" : 0,
										"gain" : 1.0
									}
, 									{
										"in" : 1,
										"out" : 1,
										"gain" : 1.0
									}
, 									{
										"in" : 2,
										"out" : 2,
										"gain" : 1.0
									}
, 									{
										"in" : 3,
										"out" : 3,
										"gain" : 1.0
									}
, 									{
										"in" : 4,
										"out" : 4,
										"gain" : 1.0
									}
 ]
							}

						}
 ],
					"bbdmi.crosspatch::output[1]" : [ "<O>" ],
					"bbdmi.crosspatch::In[1]" : [ 5 ],
					"bbdmi.myo::output[1]" : [ "<EMG>" ],
					"bbdmi.myo::output[2]" : [ "<QUAT>" ],
					"bbdmi.myo::Umenu" : [ 0 ],
					"bbdmi.rand~[2]::output[1]" : [ "<EMG>" ],
					"bbdmi.rand~[2]::output[2]" : [ "<QUAT>" ],
					"bbdmi.rand~[2]::Umenu" : [ 0 ],
					"bbdmi.list2~[1]::input" : [ "<I>" ],
					"bbdmi.list2~[1]::output[1]" : [ "<O~>" ],
					"bbdmi.list2~[1]::in" : [ 2 ],
					"bbdmi.list2~[2]::output[1]" : [ "<O~>" ],
					"bbdmi.list2~[2]::in" : [ 2 ],
					"bbdmi.list2~[2]::input" : [ "<I>" ]
				}

			}

		}

	}

}
