{
	"pattrstorage" : 	{
		"name" : "jim-at-d",
		"slots" : 		{
			"1" : 			{
				"id" : 1,
				"data" : 				{
					"bbdmi.crosspatch~::ChansIn" : [ 4 ],
					"bbdmi.crosspatch~::Crosspatch" : [ 						{
							"data" : 							{
								"numins" : 4,
								"numouts" : 4,
								"connections" : [ 									{
										"in" : 0,
										"out" : 0,
										"gain" : 1.0
									}
, 									{
										"in" : 1,
										"out" : 1,
										"gain" : 1.0
									}
, 									{
										"in" : 2,
										"out" : 2,
										"gain" : 1.0
									}
, 									{
										"in" : 3,
										"out" : 3,
										"gain" : 1.0
									}
 ]
							}

						}
 ],
					"bbdmi.crosspatch~::ChansOut" : [ 4 ]
				}

			}
,
			"2" : 			{
				"id" : 2,
				"data" : 				{
					"bbdmi.crosspatch~::ChansIn" : [ 4 ],
					"bbdmi.crosspatch~::Crosspatch" : [ 						{
							"data" : 							{
								"numins" : 4,
								"numouts" : 4
							}

						}
 ],
					"bbdmi.crosspatch~::ChansOut" : [ 4 ]
				}

			}

		}

	}

}
