{
	"pattrstorage" : 	{
		"name" : "convergence-a",
		"slots" : 		{
			"1" : 			{
				"id" : 1,
				"data" : 				{
					"bbdmi.rms~::Chans" : [ 2 ],
					"bbdmi.rms~::Winsize" : [ 0.5 ],
					"bbdmi.rms~::Interval" : [ 10 ],
					"bbdmi.~2list::Chans" : [ 2 ],
					"bbdmi.calibrate::Chans" : [ 2 ],
					"bbdmi.2max::Chans" : [ 16 ],
					"bbdmi.2max::bbdmi.2max[1]::SendTo" : [ "instr indexdistr" ],
					"bbdmi.2max::bbdmi.2max[2]::SendTo" : [ "instr grainenvmorph" ],
					"bbdmi.2max::bbdmi.2max[3]::SendTo" : [ "instr hpffreq" ],
					"bbdmi.2max::bbdmi.2max[4]::SendTo" : [ "instr lpffreq" ],
					"bbdmi.2max::bbdmi.2max[5]::SendTo" : [ "instr maxdelay" ],
					"bbdmi.2max::bbdmi.2max[6]::SendTo" : [ "instr grainsize" ],
					"bbdmi.2max::bbdmi.2max[7]::SendTo" : [ "instr grainoffset" ],
					"bbdmi.2max::bbdmi.2max[8]::SendTo" : [ "instr spacing" ],
					"bbdmi.2max::bbdmi.2max[9]::SendTo" : [ "instr modfactor" ],
					"bbdmi.2max::bbdmi.2max[10]::SendTo" : [ "instr modfreq" ],
					"bbdmi.2max::bbdmi.2max[11]::SendTo" : [ "instr modmorph" ],
					"bbdmi.2max::bbdmi.2max[12]::SendTo" : [ "instr modfreqmod" ],
					"bbdmi.2max::bbdmi.2max[13]::SendTo" : [ "instr transpgrain" ],
					"bbdmi.2max::bbdmi.2max[14]::SendTo" : [ "instr variability" ],
					"bbdmi.2max::bbdmi.2max[15]::SendTo" : [ "instr transpout" ],
					"bbdmi.2max::bbdmi.2max[16]::SendTo" : [ "instr feedback" ],
					"bbdmi.scale::Chans" : [ 16 ],
					"bbdmi.scale::bbdmi.scale[1]::OutMin" : [ 0.0 ],
					"bbdmi.scale::bbdmi.scale[1]::OutMax" : [ 22.0 ],
					"bbdmi.scale::bbdmi.scale[1]::Curve" : [ 1.0 ],
					"bbdmi.scale::bbdmi.scale[2]::OutMin" : [ 0.0 ],
					"bbdmi.scale::bbdmi.scale[2]::OutMax" : [ 1.0 ],
					"bbdmi.scale::bbdmi.scale[2]::Curve" : [ 1.0 ],
					"bbdmi.scale::bbdmi.scale[3]::OutMin" : [ 20.0 ],
					"bbdmi.scale::bbdmi.scale[3]::OutMax" : [ 20.0 ],
					"bbdmi.scale::bbdmi.scale[3]::Curve" : [ 1.0 ],
					"bbdmi.scale::bbdmi.scale[4]::OutMin" : [ 20000.0 ],
					"bbdmi.scale::bbdmi.scale[4]::OutMax" : [ 20000.0 ],
					"bbdmi.scale::bbdmi.scale[4]::Curve" : [ 1.0 ],
					"bbdmi.scale::bbdmi.scale[5]::OutMin" : [ 0.0 ],
					"bbdmi.scale::bbdmi.scale[5]::OutMax" : [ 4000.0 ],
					"bbdmi.scale::bbdmi.scale[5]::Curve" : [ 1.0 ],
					"bbdmi.scale::bbdmi.scale[6]::OutMin" : [ 0.0 ],
					"bbdmi.scale::bbdmi.scale[6]::OutMax" : [ 2000.0 ],
					"bbdmi.scale::bbdmi.scale[6]::Curve" : [ 1.0 ],
					"bbdmi.scale::bbdmi.scale[7]::OutMin" : [ 0.0 ],
					"bbdmi.scale::bbdmi.scale[7]::OutMax" : [ 2000.0 ],
					"bbdmi.scale::bbdmi.scale[7]::Curve" : [ 1.0 ],
					"bbdmi.scale::bbdmi.scale[8]::OutMin" : [ 0.0 ],
					"bbdmi.scale::bbdmi.scale[8]::OutMax" : [ 2000.0 ],
					"bbdmi.scale::bbdmi.scale[8]::Curve" : [ 1.0 ],
					"bbdmi.scale::bbdmi.scale[9]::OutMin" : [ 0.0 ],
					"bbdmi.scale::bbdmi.scale[9]::OutMax" : [ 0.8 ],
					"bbdmi.scale::bbdmi.scale[9]::Curve" : [ 1.0 ],
					"bbdmi.scale::bbdmi.scale[10]::OutMin" : [ 8.0 ],
					"bbdmi.scale::bbdmi.scale[10]::OutMax" : [ 6000.0 ],
					"bbdmi.scale::bbdmi.scale[10]::Curve" : [ 1.0 ],
					"bbdmi.scale::bbdmi.scale[11]::OutMin" : [ 0.0 ],
					"bbdmi.scale::bbdmi.scale[11]::OutMax" : [ 3.0 ],
					"bbdmi.scale::bbdmi.scale[11]::Curve" : [ 1.0 ],
					"bbdmi.scale::bbdmi.scale[12]::OutMin" : [ 0.0 ],
					"bbdmi.scale::bbdmi.scale[12]::OutMax" : [ 1.0 ],
					"bbdmi.scale::bbdmi.scale[12]::Curve" : [ 1.0 ],
					"bbdmi.scale::bbdmi.scale[13]::OutMin" : [ -16.0 ],
					"bbdmi.scale::bbdmi.scale[13]::OutMax" : [ 16.0 ],
					"bbdmi.scale::bbdmi.scale[13]::Curve" : [ 1.0 ],
					"bbdmi.scale::bbdmi.scale[14]::OutMin" : [ 0.8 ],
					"bbdmi.scale::bbdmi.scale[14]::OutMax" : [ 1.0 ],
					"bbdmi.scale::bbdmi.scale[14]::Curve" : [ 1.0 ],
					"bbdmi.scale::bbdmi.scale[15]::OutMin" : [ -20.0 ],
					"bbdmi.scale::bbdmi.scale[15]::OutMax" : [ 20.0 ],
					"bbdmi.scale::bbdmi.scale[15]::Curve" : [ 1.0 ],
					"bbdmi.scale::bbdmi.scale[16]::OutMin" : [ 0.3 ],
					"bbdmi.scale::bbdmi.scale[16]::OutMax" : [ 1.0 ],
					"bbdmi.scale::bbdmi.scale[16]::Curve" : [ 1.0 ],
					"bbdmi.crosspatch::Crosspatch" : [ 						{
							"data" : 							{
								"numins" : 2,
								"numouts" : 16,
								"connections" : [ 									{
										"in" : 0,
										"out" : 0,
										"gain" : 1.0
									}
, 									{
										"in" : 1,
										"out" : 1,
										"gain" : 1.0
									}
 ]
							}

						}
 ],
					"bbdmi.crosspatch::In" : [ 2 ],
					"bbdmi.crosspatch::Out" : [ 16 ],
					"bbdmi.crosspatch~::ChansIn" : [ 4 ],
					"bbdmi.crosspatch~::Crosspatch" : [ 						{
							"data" : 							{
								"numins" : 4,
								"numouts" : 2,
								"connections" : [ 									{
										"in" : 0,
										"out" : 0,
										"gain" : 1.0
									}
, 									{
										"in" : 1,
										"out" : 1,
										"gain" : 1.0
									}
 ]
							}

						}
 ],
					"bbdmi.crosspatch~::ChansOut" : [ 2 ]
				}

			}
,
			"2" : 			{
				"id" : 2,
				"data" : 				{
					"bbdmi.rms~::Chans" : [ 3 ],
					"bbdmi.rms~::Winsize" : [ 0.5 ],
					"bbdmi.rms~::Interval" : [ 10 ],
					"bbdmi.~2list::Chans" : [  ],
					"bbdmi.calibrate::Chans" : [ 3 ],
					"bbdmi.2max::Chans" : [ 16 ],
					"bbdmi.2max::bbdmi.2max[1]::SendTo" : [ "instr indexdistr" ],
					"bbdmi.2max::bbdmi.2max[2]::SendTo" : [ "instr grainenvmorph" ],
					"bbdmi.2max::bbdmi.2max[3]::SendTo" : [ "instr hpffreq" ],
					"bbdmi.2max::bbdmi.2max[4]::SendTo" : [ "instr lpffreq" ],
					"bbdmi.2max::bbdmi.2max[5]::SendTo" : [ "instr maxdelay" ],
					"bbdmi.2max::bbdmi.2max[6]::SendTo" : [ "instr grainsize" ],
					"bbdmi.2max::bbdmi.2max[7]::SendTo" : [ "instr grainoffset" ],
					"bbdmi.2max::bbdmi.2max[8]::SendTo" : [ "instr spacing" ],
					"bbdmi.2max::bbdmi.2max[9]::SendTo" : [ "instr modfactor" ],
					"bbdmi.2max::bbdmi.2max[10]::SendTo" : [ "instr modfreq" ],
					"bbdmi.2max::bbdmi.2max[11]::SendTo" : [ "instr modmorph" ],
					"bbdmi.2max::bbdmi.2max[12]::SendTo" : [ "instr modfreqmod" ],
					"bbdmi.2max::bbdmi.2max[13]::SendTo" : [ "instr transpgrain" ],
					"bbdmi.2max::bbdmi.2max[14]::SendTo" : [ "instr variability" ],
					"bbdmi.2max::bbdmi.2max[15]::SendTo" : [ "instr transpout" ],
					"bbdmi.2max::bbdmi.2max[16]::SendTo" : [ "instr feedback" ],
					"bbdmi.scale::Chans" : [ 16 ],
					"bbdmi.scale::bbdmi.scale[1]::OutMin" : [ 0.0 ],
					"bbdmi.scale::bbdmi.scale[1]::OutMax" : [ 22.0 ],
					"bbdmi.scale::bbdmi.scale[1]::Curve" : [ 1.0 ],
					"bbdmi.scale::bbdmi.scale[2]::OutMin" : [ 0.0 ],
					"bbdmi.scale::bbdmi.scale[2]::OutMax" : [ 1.0 ],
					"bbdmi.scale::bbdmi.scale[2]::Curve" : [ 1.0 ],
					"bbdmi.scale::bbdmi.scale[3]::OutMin" : [ 20.0 ],
					"bbdmi.scale::bbdmi.scale[3]::OutMax" : [ 20.0 ],
					"bbdmi.scale::bbdmi.scale[3]::Curve" : [ 1.0 ],
					"bbdmi.scale::bbdmi.scale[4]::OutMin" : [ 20000.0 ],
					"bbdmi.scale::bbdmi.scale[4]::OutMax" : [ 20000.0 ],
					"bbdmi.scale::bbdmi.scale[4]::Curve" : [ 1.0 ],
					"bbdmi.scale::bbdmi.scale[5]::OutMin" : [ 0.0 ],
					"bbdmi.scale::bbdmi.scale[5]::OutMax" : [ 4000.0 ],
					"bbdmi.scale::bbdmi.scale[5]::Curve" : [ 1.0 ],
					"bbdmi.scale::bbdmi.scale[6]::OutMin" : [ 0.0 ],
					"bbdmi.scale::bbdmi.scale[6]::OutMax" : [ 2000.0 ],
					"bbdmi.scale::bbdmi.scale[6]::Curve" : [ 1.0 ],
					"bbdmi.scale::bbdmi.scale[7]::OutMin" : [ 0.0 ],
					"bbdmi.scale::bbdmi.scale[7]::OutMax" : [ 2000.0 ],
					"bbdmi.scale::bbdmi.scale[7]::Curve" : [ 1.0 ],
					"bbdmi.scale::bbdmi.scale[8]::OutMin" : [ 0.0 ],
					"bbdmi.scale::bbdmi.scale[8]::OutMax" : [ 2000.0 ],
					"bbdmi.scale::bbdmi.scale[8]::Curve" : [ 1.0 ],
					"bbdmi.scale::bbdmi.scale[9]::OutMin" : [ 0.0 ],
					"bbdmi.scale::bbdmi.scale[9]::OutMax" : [ 0.8 ],
					"bbdmi.scale::bbdmi.scale[9]::Curve" : [ 1.0 ],
					"bbdmi.scale::bbdmi.scale[10]::OutMin" : [ 8.0 ],
					"bbdmi.scale::bbdmi.scale[10]::OutMax" : [ 6000.0 ],
					"bbdmi.scale::bbdmi.scale[10]::Curve" : [ 1.0 ],
					"bbdmi.scale::bbdmi.scale[11]::OutMin" : [ 0.0 ],
					"bbdmi.scale::bbdmi.scale[11]::OutMax" : [ 3.0 ],
					"bbdmi.scale::bbdmi.scale[11]::Curve" : [ 1.0 ],
					"bbdmi.scale::bbdmi.scale[12]::OutMin" : [ 0.0 ],
					"bbdmi.scale::bbdmi.scale[12]::OutMax" : [ 1.0 ],
					"bbdmi.scale::bbdmi.scale[12]::Curve" : [ 1.0 ],
					"bbdmi.scale::bbdmi.scale[13]::OutMin" : [ -16.0 ],
					"bbdmi.scale::bbdmi.scale[13]::OutMax" : [ 16.0 ],
					"bbdmi.scale::bbdmi.scale[13]::Curve" : [ 1.0 ],
					"bbdmi.scale::bbdmi.scale[14]::OutMin" : [ 0.8 ],
					"bbdmi.scale::bbdmi.scale[14]::OutMax" : [ 1.0 ],
					"bbdmi.scale::bbdmi.scale[14]::Curve" : [ 1.0 ],
					"bbdmi.scale::bbdmi.scale[15]::OutMin" : [ -20.0 ],
					"bbdmi.scale::bbdmi.scale[15]::OutMax" : [ 20.0 ],
					"bbdmi.scale::bbdmi.scale[15]::Curve" : [ 1.0 ],
					"bbdmi.scale::bbdmi.scale[16]::OutMin" : [ 0.3 ],
					"bbdmi.scale::bbdmi.scale[16]::OutMax" : [ 1.0 ],
					"bbdmi.scale::bbdmi.scale[16]::Curve" : [ 1.0 ],
					"bbdmi.crosspatch::Crosspatch" : [  ],
					"bbdmi.crosspatch::In" : [  ],
					"bbdmi.crosspatch::Out" : [  ],
					"bbdmi.crosspatch~::ChansIn" : [  ],
					"bbdmi.crosspatch~::Crosspatch" : [  ],
					"bbdmi.crosspatch~::ChansOut" : [  ]
				}

			}
,
			"3" : 			{
				"id" : 3,
				"data" : 				{
					"bbdmi.rms~::Chans" : [  ],
					"bbdmi.rms~::Winsize" : [  ],
					"bbdmi.rms~::Interval" : [  ],
					"bbdmi.~2list::Chans" : [  ],
					"bbdmi.calibrate::Chans" : [  ],
					"bbdmi.2max::Chans" : [  ],
					"bbdmi.2max::bbdmi.2max[1]::SendTo" : [ "indexdistr" ],
					"bbdmi.2max::bbdmi.2max[2]::SendTo" : [ "grainenvmorph" ],
					"bbdmi.2max::bbdmi.2max[3]::SendTo" : [ "feedback" ],
					"bbdmi.2max::bbdmi.2max[4]::SendTo" : [ "hpffreq" ],
					"bbdmi.2max::bbdmi.2max[5]::SendTo" : [ "lpffreq" ],
					"bbdmi.2max::bbdmi.2max[6]::SendTo" : [ "maxdelay" ],
					"bbdmi.2max::bbdmi.2max[7]::SendTo" : [ "grainsize" ],
					"bbdmi.2max::bbdmi.2max[8]::SendTo" : [ "grainoffset" ],
					"bbdmi.2max::bbdmi.2max[9]::SendTo" : [ "spacing" ],
					"bbdmi.2max::bbdmi.2max[10]::SendTo" : [ "variability" ],
					"bbdmi.2max::bbdmi.2max[11]::SendTo" : [ "transpgrain" ],
					"bbdmi.2max::bbdmi.2max[12]::SendTo" : [ "modfactor" ],
					"bbdmi.2max::bbdmi.2max[13]::SendTo" : [ "modfreq" ],
					"bbdmi.2max::bbdmi.2max[14]::SendTo" : [ "modmorph" ],
					"bbdmi.2max::bbdmi.2max[15]::SendTo" : [ "transpout" ],
					"bbdmi.2max::bbdmi.2max[16]::SendTo" : [ "modfreqmod" ],
					"bbdmi.scale::Chans" : [  ],
					"bbdmi.scale::bbdmi.scale[1]::OutMin" : [  ],
					"bbdmi.scale::bbdmi.scale[1]::OutMax" : [  ],
					"bbdmi.scale::bbdmi.scale[1]::Curve" : [ 1.0 ],
					"bbdmi.scale::bbdmi.scale[2]::OutMin" : [  ],
					"bbdmi.scale::bbdmi.scale[2]::OutMax" : [  ],
					"bbdmi.scale::bbdmi.scale[2]::Curve" : [ 1.0 ],
					"bbdmi.scale::bbdmi.scale[3]::OutMin" : [  ],
					"bbdmi.scale::bbdmi.scale[3]::OutMax" : [  ],
					"bbdmi.scale::bbdmi.scale[3]::Curve" : [ 1.0 ],
					"bbdmi.scale::bbdmi.scale[4]::OutMin" : [  ],
					"bbdmi.scale::bbdmi.scale[4]::OutMax" : [  ],
					"bbdmi.scale::bbdmi.scale[4]::Curve" : [ 1.0 ],
					"bbdmi.scale::bbdmi.scale[5]::OutMin" : [  ],
					"bbdmi.scale::bbdmi.scale[5]::OutMax" : [  ],
					"bbdmi.scale::bbdmi.scale[5]::Curve" : [ 1.0 ],
					"bbdmi.scale::bbdmi.scale[6]::OutMin" : [  ],
					"bbdmi.scale::bbdmi.scale[6]::OutMax" : [  ],
					"bbdmi.scale::bbdmi.scale[6]::Curve" : [ 1.0 ],
					"bbdmi.scale::bbdmi.scale[7]::OutMin" : [  ],
					"bbdmi.scale::bbdmi.scale[7]::OutMax" : [  ],
					"bbdmi.scale::bbdmi.scale[7]::Curve" : [ 1.0 ],
					"bbdmi.scale::bbdmi.scale[8]::OutMin" : [  ],
					"bbdmi.scale::bbdmi.scale[8]::OutMax" : [  ],
					"bbdmi.scale::bbdmi.scale[8]::Curve" : [ 1.0 ],
					"bbdmi.scale::bbdmi.scale[9]::OutMin" : [  ],
					"bbdmi.scale::bbdmi.scale[9]::OutMax" : [  ],
					"bbdmi.scale::bbdmi.scale[9]::Curve" : [ 1.0 ],
					"bbdmi.scale::bbdmi.scale[10]::OutMin" : [  ],
					"bbdmi.scale::bbdmi.scale[10]::OutMax" : [  ],
					"bbdmi.scale::bbdmi.scale[10]::Curve" : [ 1.0 ],
					"bbdmi.scale::bbdmi.scale[11]::OutMin" : [  ],
					"bbdmi.scale::bbdmi.scale[11]::OutMax" : [  ],
					"bbdmi.scale::bbdmi.scale[11]::Curve" : [ 1.0 ],
					"bbdmi.scale::bbdmi.scale[12]::OutMin" : [  ],
					"bbdmi.scale::bbdmi.scale[12]::OutMax" : [  ],
					"bbdmi.scale::bbdmi.scale[12]::Curve" : [ 1.0 ],
					"bbdmi.scale::bbdmi.scale[13]::OutMin" : [  ],
					"bbdmi.scale::bbdmi.scale[13]::OutMax" : [  ],
					"bbdmi.scale::bbdmi.scale[13]::Curve" : [ 1.0 ],
					"bbdmi.scale::bbdmi.scale[14]::OutMin" : [  ],
					"bbdmi.scale::bbdmi.scale[14]::OutMax" : [  ],
					"bbdmi.scale::bbdmi.scale[14]::Curve" : [ 1.0 ],
					"bbdmi.scale::bbdmi.scale[15]::OutMin" : [  ],
					"bbdmi.scale::bbdmi.scale[15]::OutMax" : [  ],
					"bbdmi.scale::bbdmi.scale[15]::Curve" : [ 1.0 ],
					"bbdmi.scale::bbdmi.scale[16]::OutMin" : [  ],
					"bbdmi.scale::bbdmi.scale[16]::OutMax" : [  ],
					"bbdmi.scale::bbdmi.scale[16]::Curve" : [ 1.0 ],
					"bbdmi.crosspatch::Crosspatch" : [  ],
					"bbdmi.crosspatch::In" : [  ],
					"bbdmi.crosspatch::Out" : [  ],
					"bbdmi.crosspatch~::ChansIn" : [  ],
					"bbdmi.crosspatch~::Crosspatch" : [  ],
					"bbdmi.crosspatch~::ChansOut" : [  ]
				}

			}
,
			"4" : 			{
				"id" : 4,
				"data" : 				{
					"bbdmi.rms~::Chans" : [  ],
					"bbdmi.rms~::Winsize" : [  ],
					"bbdmi.rms~::Interval" : [  ],
					"bbdmi.~2list::Chans" : [  ],
					"bbdmi.calibrate::Chans" : [  ],
					"bbdmi.2max::Chans" : [  ],
					"bbdmi.2max::bbdmi.2max[1]::SendTo" : [ "indexdistr" ],
					"bbdmi.2max::bbdmi.2max[2]::SendTo" : [ "grainenvmorph" ],
					"bbdmi.2max::bbdmi.2max[3]::SendTo" : [ "feedback" ],
					"bbdmi.2max::bbdmi.2max[4]::SendTo" : [ "hpffreq" ],
					"bbdmi.2max::bbdmi.2max[5]::SendTo" : [ "lpffreq" ],
					"bbdmi.2max::bbdmi.2max[6]::SendTo" : [ "maxdelay" ],
					"bbdmi.2max::bbdmi.2max[7]::SendTo" : [ "grainsize" ],
					"bbdmi.2max::bbdmi.2max[8]::SendTo" : [ "grainoffset" ],
					"bbdmi.2max::bbdmi.2max[9]::SendTo" : [ "spacing" ],
					"bbdmi.2max::bbdmi.2max[10]::SendTo" : [ "variability" ],
					"bbdmi.2max::bbdmi.2max[11]::SendTo" : [ "transpgrain" ],
					"bbdmi.2max::bbdmi.2max[12]::SendTo" : [ "modfactor" ],
					"bbdmi.2max::bbdmi.2max[13]::SendTo" : [ "modfreq" ],
					"bbdmi.2max::bbdmi.2max[14]::SendTo" : [ "modmorph" ],
					"bbdmi.2max::bbdmi.2max[15]::SendTo" : [ "transpout" ],
					"bbdmi.2max::bbdmi.2max[16]::SendTo" : [ "modfreqmod" ],
					"bbdmi.scale::Chans" : [  ],
					"bbdmi.scale::bbdmi.scale[1]::OutMin" : [  ],
					"bbdmi.scale::bbdmi.scale[1]::OutMax" : [  ],
					"bbdmi.scale::bbdmi.scale[1]::Curve" : [ 1.0 ],
					"bbdmi.scale::bbdmi.scale[2]::OutMin" : [  ],
					"bbdmi.scale::bbdmi.scale[2]::OutMax" : [  ],
					"bbdmi.scale::bbdmi.scale[2]::Curve" : [ 1.0 ],
					"bbdmi.scale::bbdmi.scale[3]::OutMin" : [  ],
					"bbdmi.scale::bbdmi.scale[3]::OutMax" : [  ],
					"bbdmi.scale::bbdmi.scale[3]::Curve" : [ 1.0 ],
					"bbdmi.scale::bbdmi.scale[4]::OutMin" : [  ],
					"bbdmi.scale::bbdmi.scale[4]::OutMax" : [  ],
					"bbdmi.scale::bbdmi.scale[4]::Curve" : [ 1.0 ],
					"bbdmi.scale::bbdmi.scale[5]::OutMin" : [  ],
					"bbdmi.scale::bbdmi.scale[5]::OutMax" : [  ],
					"bbdmi.scale::bbdmi.scale[5]::Curve" : [ 1.0 ],
					"bbdmi.scale::bbdmi.scale[6]::OutMin" : [  ],
					"bbdmi.scale::bbdmi.scale[6]::OutMax" : [  ],
					"bbdmi.scale::bbdmi.scale[6]::Curve" : [ 1.0 ],
					"bbdmi.scale::bbdmi.scale[7]::OutMin" : [  ],
					"bbdmi.scale::bbdmi.scale[7]::OutMax" : [  ],
					"bbdmi.scale::bbdmi.scale[7]::Curve" : [ 1.0 ],
					"bbdmi.scale::bbdmi.scale[8]::OutMin" : [  ],
					"bbdmi.scale::bbdmi.scale[8]::OutMax" : [  ],
					"bbdmi.scale::bbdmi.scale[8]::Curve" : [ 1.0 ],
					"bbdmi.scale::bbdmi.scale[9]::OutMin" : [  ],
					"bbdmi.scale::bbdmi.scale[9]::OutMax" : [  ],
					"bbdmi.scale::bbdmi.scale[9]::Curve" : [ 1.0 ],
					"bbdmi.scale::bbdmi.scale[10]::OutMin" : [  ],
					"bbdmi.scale::bbdmi.scale[10]::OutMax" : [  ],
					"bbdmi.scale::bbdmi.scale[10]::Curve" : [ 1.0 ],
					"bbdmi.scale::bbdmi.scale[11]::OutMin" : [  ],
					"bbdmi.scale::bbdmi.scale[11]::OutMax" : [  ],
					"bbdmi.scale::bbdmi.scale[11]::Curve" : [ 1.0 ],
					"bbdmi.scale::bbdmi.scale[12]::OutMin" : [  ],
					"bbdmi.scale::bbdmi.scale[12]::OutMax" : [  ],
					"bbdmi.scale::bbdmi.scale[12]::Curve" : [ 1.0 ],
					"bbdmi.scale::bbdmi.scale[13]::OutMin" : [  ],
					"bbdmi.scale::bbdmi.scale[13]::OutMax" : [  ],
					"bbdmi.scale::bbdmi.scale[13]::Curve" : [ 1.0 ],
					"bbdmi.scale::bbdmi.scale[14]::OutMin" : [  ],
					"bbdmi.scale::bbdmi.scale[14]::OutMax" : [  ],
					"bbdmi.scale::bbdmi.scale[14]::Curve" : [ 1.0 ],
					"bbdmi.scale::bbdmi.scale[15]::OutMin" : [  ],
					"bbdmi.scale::bbdmi.scale[15]::OutMax" : [  ],
					"bbdmi.scale::bbdmi.scale[15]::Curve" : [ 1.0 ],
					"bbdmi.scale::bbdmi.scale[16]::OutMin" : [  ],
					"bbdmi.scale::bbdmi.scale[16]::OutMax" : [  ],
					"bbdmi.scale::bbdmi.scale[16]::Curve" : [ 1.0 ],
					"bbdmi.crosspatch::Crosspatch" : [  ],
					"bbdmi.crosspatch::In" : [  ],
					"bbdmi.crosspatch::Out" : [  ],
					"bbdmi.crosspatch~::ChansIn" : [  ],
					"bbdmi.crosspatch~::Crosspatch" : [  ],
					"bbdmi.crosspatch~::ChansOut" : [  ]
				}

			}
,
			"5" : 			{
				"id" : 5,
				"data" : 				{
					"bbdmi.rms~::Chans" : [  ],
					"bbdmi.rms~::Winsize" : [  ],
					"bbdmi.rms~::Interval" : [  ],
					"bbdmi.~2list::Chans" : [  ],
					"bbdmi.calibrate::Chans" : [  ],
					"bbdmi.2max::Chans" : [  ],
					"bbdmi.2max::bbdmi.2max[1]::SendTo" : [ "indexdistr" ],
					"bbdmi.2max::bbdmi.2max[2]::SendTo" : [ "grainenvmorph" ],
					"bbdmi.2max::bbdmi.2max[3]::SendTo" : [ "feedback" ],
					"bbdmi.2max::bbdmi.2max[4]::SendTo" : [ "hpffreq" ],
					"bbdmi.2max::bbdmi.2max[5]::SendTo" : [ "lpffreq" ],
					"bbdmi.2max::bbdmi.2max[6]::SendTo" : [ "maxdelay" ],
					"bbdmi.2max::bbdmi.2max[7]::SendTo" : [ "grainsize" ],
					"bbdmi.2max::bbdmi.2max[8]::SendTo" : [ "grainoffset" ],
					"bbdmi.2max::bbdmi.2max[9]::SendTo" : [ "spacing" ],
					"bbdmi.2max::bbdmi.2max[10]::SendTo" : [ "variability" ],
					"bbdmi.2max::bbdmi.2max[11]::SendTo" : [ "transpgrain" ],
					"bbdmi.2max::bbdmi.2max[12]::SendTo" : [ "modfactor" ],
					"bbdmi.2max::bbdmi.2max[13]::SendTo" : [ "modfreq" ],
					"bbdmi.2max::bbdmi.2max[14]::SendTo" : [ "modmorph" ],
					"bbdmi.2max::bbdmi.2max[15]::SendTo" : [ "transpout" ],
					"bbdmi.2max::bbdmi.2max[16]::SendTo" : [ "modfreqmod" ],
					"bbdmi.scale::Chans" : [  ],
					"bbdmi.scale::bbdmi.scale[1]::OutMin" : [  ],
					"bbdmi.scale::bbdmi.scale[1]::OutMax" : [  ],
					"bbdmi.scale::bbdmi.scale[1]::Curve" : [ 1.0 ],
					"bbdmi.scale::bbdmi.scale[2]::OutMin" : [  ],
					"bbdmi.scale::bbdmi.scale[2]::OutMax" : [  ],
					"bbdmi.scale::bbdmi.scale[2]::Curve" : [ 1.0 ],
					"bbdmi.scale::bbdmi.scale[3]::OutMin" : [  ],
					"bbdmi.scale::bbdmi.scale[3]::OutMax" : [  ],
					"bbdmi.scale::bbdmi.scale[3]::Curve" : [ 1.0 ],
					"bbdmi.scale::bbdmi.scale[4]::OutMin" : [  ],
					"bbdmi.scale::bbdmi.scale[4]::OutMax" : [  ],
					"bbdmi.scale::bbdmi.scale[4]::Curve" : [ 1.0 ],
					"bbdmi.scale::bbdmi.scale[5]::OutMin" : [  ],
					"bbdmi.scale::bbdmi.scale[5]::OutMax" : [  ],
					"bbdmi.scale::bbdmi.scale[5]::Curve" : [ 1.0 ],
					"bbdmi.scale::bbdmi.scale[6]::OutMin" : [  ],
					"bbdmi.scale::bbdmi.scale[6]::OutMax" : [  ],
					"bbdmi.scale::bbdmi.scale[6]::Curve" : [ 1.0 ],
					"bbdmi.scale::bbdmi.scale[7]::OutMin" : [  ],
					"bbdmi.scale::bbdmi.scale[7]::OutMax" : [  ],
					"bbdmi.scale::bbdmi.scale[7]::Curve" : [ 1.0 ],
					"bbdmi.scale::bbdmi.scale[8]::OutMin" : [  ],
					"bbdmi.scale::bbdmi.scale[8]::OutMax" : [  ],
					"bbdmi.scale::bbdmi.scale[8]::Curve" : [ 1.0 ],
					"bbdmi.scale::bbdmi.scale[9]::OutMin" : [  ],
					"bbdmi.scale::bbdmi.scale[9]::OutMax" : [  ],
					"bbdmi.scale::bbdmi.scale[9]::Curve" : [ 1.0 ],
					"bbdmi.scale::bbdmi.scale[10]::OutMin" : [  ],
					"bbdmi.scale::bbdmi.scale[10]::OutMax" : [  ],
					"bbdmi.scale::bbdmi.scale[10]::Curve" : [ 1.0 ],
					"bbdmi.scale::bbdmi.scale[11]::OutMin" : [  ],
					"bbdmi.scale::bbdmi.scale[11]::OutMax" : [  ],
					"bbdmi.scale::bbdmi.scale[11]::Curve" : [ 1.0 ],
					"bbdmi.scale::bbdmi.scale[12]::OutMin" : [  ],
					"bbdmi.scale::bbdmi.scale[12]::OutMax" : [  ],
					"bbdmi.scale::bbdmi.scale[12]::Curve" : [ 1.0 ],
					"bbdmi.scale::bbdmi.scale[13]::OutMin" : [  ],
					"bbdmi.scale::bbdmi.scale[13]::OutMax" : [  ],
					"bbdmi.scale::bbdmi.scale[13]::Curve" : [ 1.0 ],
					"bbdmi.scale::bbdmi.scale[14]::OutMin" : [  ],
					"bbdmi.scale::bbdmi.scale[14]::OutMax" : [  ],
					"bbdmi.scale::bbdmi.scale[14]::Curve" : [ 1.0 ],
					"bbdmi.scale::bbdmi.scale[15]::OutMin" : [  ],
					"bbdmi.scale::bbdmi.scale[15]::OutMax" : [  ],
					"bbdmi.scale::bbdmi.scale[15]::Curve" : [ 1.0 ],
					"bbdmi.scale::bbdmi.scale[16]::OutMin" : [  ],
					"bbdmi.scale::bbdmi.scale[16]::OutMax" : [  ],
					"bbdmi.scale::bbdmi.scale[16]::Curve" : [ 1.0 ],
					"bbdmi.crosspatch::Crosspatch" : [  ],
					"bbdmi.crosspatch::In" : [  ],
					"bbdmi.crosspatch::Out" : [  ],
					"bbdmi.crosspatch~::ChansIn" : [  ],
					"bbdmi.crosspatch~::Crosspatch" : [  ],
					"bbdmi.crosspatch~::ChansOut" : [  ]
				}

			}
,
			"6" : 			{
				"id" : 6,
				"data" : 				{
					"bbdmi.rms~::Chans" : [  ],
					"bbdmi.rms~::Winsize" : [  ],
					"bbdmi.rms~::Interval" : [  ],
					"bbdmi.~2list::Chans" : [  ],
					"bbdmi.calibrate::Chans" : [  ],
					"bbdmi.2max::Chans" : [  ],
					"bbdmi.2max::bbdmi.2max[1]::SendTo" : [ "indexdistr" ],
					"bbdmi.2max::bbdmi.2max[2]::SendTo" : [ "grainenvmorph" ],
					"bbdmi.2max::bbdmi.2max[3]::SendTo" : [ "feedback" ],
					"bbdmi.2max::bbdmi.2max[4]::SendTo" : [ "hpffreq" ],
					"bbdmi.2max::bbdmi.2max[5]::SendTo" : [ "lpffreq" ],
					"bbdmi.2max::bbdmi.2max[6]::SendTo" : [ "maxdelay" ],
					"bbdmi.2max::bbdmi.2max[7]::SendTo" : [ "grainsize" ],
					"bbdmi.2max::bbdmi.2max[8]::SendTo" : [ "grainoffset" ],
					"bbdmi.2max::bbdmi.2max[9]::SendTo" : [ "spacing" ],
					"bbdmi.2max::bbdmi.2max[10]::SendTo" : [ "variability" ],
					"bbdmi.2max::bbdmi.2max[11]::SendTo" : [ "transpgrain" ],
					"bbdmi.2max::bbdmi.2max[12]::SendTo" : [ "modfactor" ],
					"bbdmi.2max::bbdmi.2max[13]::SendTo" : [ "modfreq" ],
					"bbdmi.2max::bbdmi.2max[14]::SendTo" : [ "modmorph" ],
					"bbdmi.2max::bbdmi.2max[15]::SendTo" : [ "transpout" ],
					"bbdmi.2max::bbdmi.2max[16]::SendTo" : [ "modfreqmod" ],
					"bbdmi.scale::Chans" : [  ],
					"bbdmi.scale::bbdmi.scale[1]::OutMin" : [  ],
					"bbdmi.scale::bbdmi.scale[1]::OutMax" : [  ],
					"bbdmi.scale::bbdmi.scale[1]::Curve" : [ 1.0 ],
					"bbdmi.scale::bbdmi.scale[2]::OutMin" : [  ],
					"bbdmi.scale::bbdmi.scale[2]::OutMax" : [  ],
					"bbdmi.scale::bbdmi.scale[2]::Curve" : [ 1.0 ],
					"bbdmi.scale::bbdmi.scale[3]::OutMin" : [  ],
					"bbdmi.scale::bbdmi.scale[3]::OutMax" : [  ],
					"bbdmi.scale::bbdmi.scale[3]::Curve" : [ 1.0 ],
					"bbdmi.scale::bbdmi.scale[4]::OutMin" : [  ],
					"bbdmi.scale::bbdmi.scale[4]::OutMax" : [  ],
					"bbdmi.scale::bbdmi.scale[4]::Curve" : [ 1.0 ],
					"bbdmi.scale::bbdmi.scale[5]::OutMin" : [  ],
					"bbdmi.scale::bbdmi.scale[5]::OutMax" : [  ],
					"bbdmi.scale::bbdmi.scale[5]::Curve" : [ 1.0 ],
					"bbdmi.scale::bbdmi.scale[6]::OutMin" : [  ],
					"bbdmi.scale::bbdmi.scale[6]::OutMax" : [  ],
					"bbdmi.scale::bbdmi.scale[6]::Curve" : [ 1.0 ],
					"bbdmi.scale::bbdmi.scale[7]::OutMin" : [  ],
					"bbdmi.scale::bbdmi.scale[7]::OutMax" : [  ],
					"bbdmi.scale::bbdmi.scale[7]::Curve" : [ 1.0 ],
					"bbdmi.scale::bbdmi.scale[8]::OutMin" : [  ],
					"bbdmi.scale::bbdmi.scale[8]::OutMax" : [  ],
					"bbdmi.scale::bbdmi.scale[8]::Curve" : [ 1.0 ],
					"bbdmi.scale::bbdmi.scale[9]::OutMin" : [  ],
					"bbdmi.scale::bbdmi.scale[9]::OutMax" : [  ],
					"bbdmi.scale::bbdmi.scale[9]::Curve" : [ 1.0 ],
					"bbdmi.scale::bbdmi.scale[10]::OutMin" : [  ],
					"bbdmi.scale::bbdmi.scale[10]::OutMax" : [  ],
					"bbdmi.scale::bbdmi.scale[10]::Curve" : [ 1.0 ],
					"bbdmi.scale::bbdmi.scale[11]::OutMin" : [  ],
					"bbdmi.scale::bbdmi.scale[11]::OutMax" : [  ],
					"bbdmi.scale::bbdmi.scale[11]::Curve" : [ 1.0 ],
					"bbdmi.scale::bbdmi.scale[12]::OutMin" : [  ],
					"bbdmi.scale::bbdmi.scale[12]::OutMax" : [  ],
					"bbdmi.scale::bbdmi.scale[12]::Curve" : [ 1.0 ],
					"bbdmi.scale::bbdmi.scale[13]::OutMin" : [  ],
					"bbdmi.scale::bbdmi.scale[13]::OutMax" : [  ],
					"bbdmi.scale::bbdmi.scale[13]::Curve" : [ 1.0 ],
					"bbdmi.scale::bbdmi.scale[14]::OutMin" : [  ],
					"bbdmi.scale::bbdmi.scale[14]::OutMax" : [  ],
					"bbdmi.scale::bbdmi.scale[14]::Curve" : [ 1.0 ],
					"bbdmi.scale::bbdmi.scale[15]::OutMin" : [  ],
					"bbdmi.scale::bbdmi.scale[15]::OutMax" : [  ],
					"bbdmi.scale::bbdmi.scale[15]::Curve" : [ 1.0 ],
					"bbdmi.scale::bbdmi.scale[16]::OutMin" : [  ],
					"bbdmi.scale::bbdmi.scale[16]::OutMax" : [  ],
					"bbdmi.scale::bbdmi.scale[16]::Curve" : [ 1.0 ],
					"bbdmi.crosspatch::Crosspatch" : [  ],
					"bbdmi.crosspatch::In" : [  ],
					"bbdmi.crosspatch::Out" : [  ],
					"bbdmi.crosspatch~::ChansIn" : [  ],
					"bbdmi.crosspatch~::Crosspatch" : [  ],
					"bbdmi.crosspatch~::ChansOut" : [  ]
				}

			}

		}

	}

}
