{
	"pattrstorage" : 	{
		"name" : "crosspatch",
		"slots" : 		{
			"1" : 			{
				"id" : 1,
				"data" : 				{
					"bbdmi.multislider[2]::input-list" : [ "<I>" ],
					"bbdmi.multislider[2]::output" : [ "<O>" ],
					"bbdmi.multislider[2]::In[1]" : [ 4 ],
					"bbdmi.multislider[2]::UniBi[1]" : [ 0 ],
					"bbdmi.rand~[3]::input-list" : [ "<I>" ],
					"bbdmi.rand~[3]::output" : [ "<O>" ],
					"bbdmi.rand~[3]::In[1]" : [ 4 ],
					"bbdmi.rand~[3]::UniBi[1]" : [ 0 ],
					"bbdmi.crosspatch::input-list" : [ "<I>" ],
					"bbdmi.crosspatch::output[1]" : [ "<O>" ],
					"bbdmi.crosspatch::Crosspatch" : [ 						{
							"data" : 							{
								"numins" : 4,
								"numouts" : 4,
								"connections" : [ 									{
										"in" : 0,
										"out" : 0,
										"gain" : 1.0
									}
, 									{
										"in" : 1,
										"out" : 1,
										"gain" : 1.0
									}
, 									{
										"in" : 2,
										"out" : 2,
										"gain" : 1.0
									}
, 									{
										"in" : 3,
										"out" : 3,
										"gain" : 1.0
									}
 ]
							}

						}
 ],
					"bbdmi.crosspatch::In[1]" : [ 4 ],
					"bbdmi.crosspatch::Out[1]" : [ 4 ],
					"bbdmi.rand~[1]::input-list" : [ "<I>" ],
					"bbdmi.rand~[1]::output[1]" : [ "<O>" ],
					"bbdmi.rand~[1]::Crosspatch" : [ 						{
							"data" : 							{
								"numins" : 4,
								"numouts" : 4
							}

						}
 ],
					"bbdmi.rand~[1]::In[1]" : [ 4 ],
					"bbdmi.rand~[1]::Out[1]" : [ 4 ],
					"bbdmi.multislider[1]::input-list" : [ "<I>" ],
					"bbdmi.multislider[1]::output" : [ "<O>" ],
					"bbdmi.multislider[1]::In[1]" : [ 4 ],
					"bbdmi.multislider[1]::UniBi[1]" : [ 0 ],
					"bbdmi.rand~[2]::input-list" : [ "<I>" ],
					"bbdmi.rand~[2]::output" : [ "<O>" ],
					"bbdmi.rand~[2]::In[1]" : [ 4 ],
					"bbdmi.rand~[2]::UniBi[1]" : [ 0 ]
				}

			}
,
			"2" : 			{
				"id" : 2,
				"data" : 				{
					"bbdmi.multislider[2]::input-list" : [ "<I>" ],
					"bbdmi.multislider[2]::output" : [ "<O>" ],
					"bbdmi.multislider[2]::In[1]" : [ 4 ],
					"bbdmi.multislider[2]::UniBi[1]" : [ 0 ],
					"bbdmi.rand~[3]::input-list" : [ "<I>" ],
					"bbdmi.rand~[3]::output" : [ "<O>" ],
					"bbdmi.rand~[3]::In[1]" : [ 4 ],
					"bbdmi.rand~[3]::UniBi[1]" : [ 0 ],
					"bbdmi.crosspatch::input-list" : [ "<I>" ],
					"bbdmi.crosspatch::output[1]" : [ "<O>" ],
					"bbdmi.crosspatch::Crosspatch" : [ 						{
							"data" : 							{
								"numins" : 4,
								"numouts" : 4,
								"connections" : [ 									{
										"in" : 0,
										"out" : 3,
										"gain" : 1.0
									}
, 									{
										"in" : 3,
										"out" : 0,
										"gain" : 1.0
									}
 ]
							}

						}
 ],
					"bbdmi.crosspatch::In[1]" : [ 4 ],
					"bbdmi.crosspatch::Out[1]" : [ 4 ],
					"bbdmi.rand~[1]::input-list" : [ "<I>" ],
					"bbdmi.rand~[1]::output[1]" : [ "<O>" ],
					"bbdmi.rand~[1]::Crosspatch" : [ 						{
							"data" : 							{
								"numins" : 4,
								"numouts" : 4
							}

						}
 ],
					"bbdmi.rand~[1]::In[1]" : [ 4 ],
					"bbdmi.rand~[1]::Out[1]" : [ 4 ],
					"bbdmi.multislider[1]::input-list" : [ "<I>" ],
					"bbdmi.multislider[1]::output" : [ "<O>" ],
					"bbdmi.multislider[1]::In[1]" : [ 4 ],
					"bbdmi.multislider[1]::UniBi[1]" : [ 0 ],
					"bbdmi.rand~[2]::input-list" : [ "<I>" ],
					"bbdmi.rand~[2]::output" : [ "<O>" ],
					"bbdmi.rand~[2]::In[1]" : [ 4 ],
					"bbdmi.rand~[2]::UniBi[1]" : [ 0 ]
				}

			}
,
			"3" : 			{
				"id" : 3,
				"data" : 				{
					"bbdmi.multislider[2]::input-list" : [ "<I>" ],
					"bbdmi.multislider[2]::output" : [ "<O>" ],
					"bbdmi.multislider[2]::In[1]" : [ 4 ],
					"bbdmi.multislider[2]::UniBi[1]" : [ 0 ],
					"bbdmi.rand~[3]::input-list" : [ "<I>" ],
					"bbdmi.rand~[3]::output" : [ "<O>" ],
					"bbdmi.rand~[3]::In[1]" : [ 4 ],
					"bbdmi.rand~[3]::UniBi[1]" : [ 0 ],
					"bbdmi.crosspatch::input-list" : [ "<I>" ],
					"bbdmi.crosspatch::output[1]" : [ "<O>" ],
					"bbdmi.crosspatch::Crosspatch" : [ 						{
							"data" : 							{
								"numins" : 4,
								"numouts" : 4,
								"connections" : [ 									{
										"in" : 1,
										"out" : 0,
										"gain" : 1.0
									}
, 									{
										"in" : 1,
										"out" : 3,
										"gain" : 1.0
									}
, 									{
										"in" : 1,
										"out" : 2,
										"gain" : 1.0
									}
 ]
							}

						}
 ],
					"bbdmi.crosspatch::In[1]" : [ 4 ],
					"bbdmi.crosspatch::Out[1]" : [ 4 ],
					"bbdmi.rand~[1]::input-list" : [ "<I>" ],
					"bbdmi.rand~[1]::output[1]" : [ "<O>" ],
					"bbdmi.rand~[1]::Crosspatch" : [ 						{
							"data" : 							{
								"numins" : 4,
								"numouts" : 4
							}

						}
 ],
					"bbdmi.rand~[1]::In[1]" : [ 4 ],
					"bbdmi.rand~[1]::Out[1]" : [ 4 ],
					"bbdmi.multislider[1]::input-list" : [ "<I>" ],
					"bbdmi.multislider[1]::output" : [ "<O>" ],
					"bbdmi.multislider[1]::In[1]" : [ 4 ],
					"bbdmi.multislider[1]::UniBi[1]" : [ 0 ],
					"bbdmi.rand~[2]::input-list" : [ "<I>" ],
					"bbdmi.rand~[2]::output" : [ "<O>" ],
					"bbdmi.rand~[2]::In[1]" : [ 4 ],
					"bbdmi.rand~[2]::UniBi[1]" : [ 0 ]
				}

			}

		}

	}

}
