"classnamespace" : "box", "openrect" : [ 0,0, 2000.0, 2000 ],
"openinpresentation" : 1,
"lefttoolbarpinned" : 2,
"toptoolbarpinned" : 2,
"toolbars_unpinned_last_save" : 3,
"subpatcher_template" : "Default Max 7", "assistshowspatchername" : 0,
"filename" : "ui2.js",
"text" : "js ui2.js"
